10:47:47 INFO  : Registering command handlers for SDK TCF services
10:47:48 INFO  : Launching XSCT server: xsct.bat -interactive W:\Common\70R\Students\7D-BU72_149\Thesis\Thomas\ZYNQ\cable_robotics\cable_robotics.sdk\temp_xsdb_launch_script.tcl
10:47:53 INFO  : XSCT server has started successfully.
10:47:55 INFO  : Successfully done setting XSCT server connection channel  
10:47:55 INFO  : Processing command line option -hwspec W:/Common/70R/Students/7D-BU72_149/Thesis/Thomas/ZYNQ/cable_robotics/cable_robotics.sdk/top_level.hdf.
10:47:55 INFO  : Successfully done setting SDK workspace  
10:53:00 INFO  : Launching XSCT server: xsct.bat -interactive W:\Common\70R\Students\7D-BU72_149\Thesis\Thomas\ZYNQ\cable_robotics\cable_robotics.sdk\temp_xsdb_launch_script.tcl
10:53:04 INFO  : XSCT server has started successfully.
10:53:09 INFO  : Successfully done setting XSCT server connection channel  
10:53:09 INFO  : Successfully done setting SDK workspace  
10:53:12 INFO  : Registering command handlers for SDK TCF services
10:53:13 INFO  : Processing command line option -hwspec W:/Common/70R/Students/7D-BU72_149/Thesis/Thomas/ZYNQ/cable_robotics/cable_robotics.sdk/top_level.hdf.
10:53:13 INFO  : Checking for hwspec changes in the project top_level_hw_platform_0.
11:28:24 INFO  : Connected to target on host '127.0.0.1' and port '3121'.
11:28:24 INFO  : 'targets -set -filter {jtag_cable_name =~ "Digilent JTAG-HS3 210299A566DE" && level==0} -index 1' command is executed.
11:28:26 INFO  : FPGA configured successfully with bitstream "W:/Common/70R/Students/7D-BU72_149/Thesis/Thomas/ZYNQ/cable_robotics/cable_robotics.sdk/top_level_hw_platform_0/top_level.bit"
11:33:45 INFO  : 'targets -set -filter {jtag_cable_name =~ "Digilent JTAG-HS3 210299A566DE" && level==0} -index 1' command is executed.
11:33:45 INFO  : 'fpga -state' command is executed.
11:33:45 INFO  : Connected to target on host '127.0.0.1' and port '3121'.
11:33:45 INFO  : Jtag cable 'Digilent JTAG-HS3 210299A566DE' is selected.
11:33:45 INFO  : 'jtag frequency' command is executed.
11:33:45 INFO  : Sourcing of 'W:/Common/70R/Students/7D-BU72_149/Thesis/Thomas/ZYNQ/cable_robotics/cable_robotics.sdk/top_level_hw_platform_0/ps7_init.tcl' is done.
11:33:45 INFO  : Context for 'APU' is selected.
11:33:45 INFO  : Hardware design information is loaded from 'W:/Common/70R/Students/7D-BU72_149/Thesis/Thomas/ZYNQ/cable_robotics/cable_robotics.sdk/top_level_hw_platform_0/system.hdf'.
11:33:46 INFO  : 'configparams force-mem-access 1' command is executed.
11:33:46 INFO  : Context for 'APU' is selected.
11:33:46 INFO  : 'stop' command is executed.
11:33:46 INFO  : 'ps7_init' command is executed.
11:33:46 INFO  : 'ps7_post_config' command is executed.
11:33:46 INFO  : Context for processor 'ps7_cortexa9_0' is selected.
11:33:46 INFO  : Processor reset is completed for 'ps7_cortexa9_0'.
11:33:46 INFO  : Context for processor 'ps7_cortexa9_0' is selected.
11:33:46 INFO  : The application 'W:/Common/70R/Students/7D-BU72_149/Thesis/Thomas/ZYNQ/cable_robotics/cable_robotics.sdk/cable_robotics_sw/Debug/cable_robotics_sw.elf' is downloaded to processor 'ps7_cortexa9_0'.
11:33:46 INFO  : 'configparams force-mem-access 0' command is executed.
11:33:46 INFO  : ----------------XSDB Script----------------
connect -url tcp:127.0.0.1:3121
source W:/Common/70R/Students/7D-BU72_149/Thesis/Thomas/ZYNQ/cable_robotics/cable_robotics.sdk/top_level_hw_platform_0/ps7_init.tcl
targets -set -nocase -filter {name =~"APU*" && jtag_cable_name =~ "Digilent JTAG-HS3 210299A566DE"} -index 0
loadhw -hw W:/Common/70R/Students/7D-BU72_149/Thesis/Thomas/ZYNQ/cable_robotics/cable_robotics.sdk/top_level_hw_platform_0/system.hdf -mem-ranges [list {0x40000000 0xbfffffff}]
configparams force-mem-access 1
targets -set -nocase -filter {name =~"APU*" && jtag_cable_name =~ "Digilent JTAG-HS3 210299A566DE"} -index 0
stop
ps7_init
ps7_post_config
targets -set -nocase -filter {name =~ "ARM*#0" && jtag_cable_name =~ "Digilent JTAG-HS3 210299A566DE"} -index 0
rst -processor
targets -set -nocase -filter {name =~ "ARM*#0" && jtag_cable_name =~ "Digilent JTAG-HS3 210299A566DE"} -index 0
dow W:/Common/70R/Students/7D-BU72_149/Thesis/Thomas/ZYNQ/cable_robotics/cable_robotics.sdk/cable_robotics_sw/Debug/cable_robotics_sw.elf
configparams force-mem-access 0
----------------End of Script----------------

11:33:46 INFO  : Memory regions updated for context APU
11:33:46 INFO  : Context for processor 'ps7_cortexa9_0' is selected.
11:33:46 INFO  : 'con' command is executed.
11:33:46 INFO  : ----------------XSDB Script (After Launch)----------------
targets -set -nocase -filter {name =~ "ARM*#0" && jtag_cable_name =~ "Digilent JTAG-HS3 210299A566DE"} -index 0
con
----------------End of Script----------------

11:33:46 INFO  : Launch script is exported to file 'W:\Common\70R\Students\7D-BU72_149\Thesis\Thomas\ZYNQ\cable_robotics\cable_robotics.sdk\.sdk\launch_scripts\xilinx_c-c++_application_(system_debugger)\system_debugger_using_debug_cable_robotics_sw.elf_on_local.tcl'
11:36:25 INFO  : Disconnected from the channel tcfchan#1.
11:36:26 INFO  : 'targets -set -filter {jtag_cable_name =~ "Digilent JTAG-HS3 210299A566DE" && level==0} -index 1' command is executed.
11:36:26 INFO  : 'fpga -state' command is executed.
11:36:27 INFO  : Connected to target on host '127.0.0.1' and port '3121'.
11:36:27 INFO  : Jtag cable 'Digilent JTAG-HS3 210299A566DE' is selected.
11:36:27 INFO  : 'jtag frequency' command is executed.
11:36:27 INFO  : Sourcing of 'W:/Common/70R/Students/7D-BU72_149/Thesis/Thomas/ZYNQ/cable_robotics/cable_robotics.sdk/top_level_hw_platform_0/ps7_init.tcl' is done.
11:36:27 INFO  : Context for 'APU' is selected.
11:36:33 INFO  : Hardware design information is loaded from 'W:/Common/70R/Students/7D-BU72_149/Thesis/Thomas/ZYNQ/cable_robotics/cable_robotics.sdk/top_level_hw_platform_0/system.hdf'.
11:36:33 INFO  : 'configparams force-mem-access 1' command is executed.
11:36:33 INFO  : Context for 'APU' is selected.
11:36:33 INFO  : 'stop' command is executed.
11:36:33 INFO  : 'ps7_init' command is executed.
11:36:33 INFO  : 'ps7_post_config' command is executed.
11:36:33 INFO  : Context for processor 'ps7_cortexa9_0' is selected.
11:36:33 INFO  : Processor reset is completed for 'ps7_cortexa9_0'.
11:36:33 INFO  : Context for processor 'ps7_cortexa9_0' is selected.
11:36:33 INFO  : The application 'W:/Common/70R/Students/7D-BU72_149/Thesis/Thomas/ZYNQ/cable_robotics/cable_robotics.sdk/cable_robotics_sw/Debug/cable_robotics_sw.elf' is downloaded to processor 'ps7_cortexa9_0'.
11:36:33 INFO  : 'configparams force-mem-access 0' command is executed.
11:36:33 INFO  : ----------------XSDB Script----------------
connect -url tcp:127.0.0.1:3121
source W:/Common/70R/Students/7D-BU72_149/Thesis/Thomas/ZYNQ/cable_robotics/cable_robotics.sdk/top_level_hw_platform_0/ps7_init.tcl
targets -set -nocase -filter {name =~"APU*" && jtag_cable_name =~ "Digilent JTAG-HS3 210299A566DE"} -index 0
loadhw -hw W:/Common/70R/Students/7D-BU72_149/Thesis/Thomas/ZYNQ/cable_robotics/cable_robotics.sdk/top_level_hw_platform_0/system.hdf -mem-ranges [list {0x40000000 0xbfffffff}]
configparams force-mem-access 1
targets -set -nocase -filter {name =~"APU*" && jtag_cable_name =~ "Digilent JTAG-HS3 210299A566DE"} -index 0
stop
ps7_init
ps7_post_config
targets -set -nocase -filter {name =~ "ARM*#0" && jtag_cable_name =~ "Digilent JTAG-HS3 210299A566DE"} -index 0
rst -processor
targets -set -nocase -filter {name =~ "ARM*#0" && jtag_cable_name =~ "Digilent JTAG-HS3 210299A566DE"} -index 0
dow W:/Common/70R/Students/7D-BU72_149/Thesis/Thomas/ZYNQ/cable_robotics/cable_robotics.sdk/cable_robotics_sw/Debug/cable_robotics_sw.elf
configparams force-mem-access 0
----------------End of Script----------------

11:36:33 INFO  : Memory regions updated for context APU
11:36:33 INFO  : Context for processor 'ps7_cortexa9_0' is selected.
11:36:33 INFO  : 'con' command is executed.
11:36:33 INFO  : ----------------XSDB Script (After Launch)----------------
targets -set -nocase -filter {name =~ "ARM*#0" && jtag_cable_name =~ "Digilent JTAG-HS3 210299A566DE"} -index 0
con
----------------End of Script----------------

11:36:33 INFO  : Launch script is exported to file 'W:\Common\70R\Students\7D-BU72_149\Thesis\Thomas\ZYNQ\cable_robotics\cable_robotics.sdk\.sdk\launch_scripts\xilinx_c-c++_application_(system_debugger)\system_debugger_using_debug_cable_robotics_sw.elf_on_local.tcl'
13:45:07 INFO  : Connected to target on host '127.0.0.1' and port '3121'.
13:45:07 INFO  : 'targets -set -filter {jtag_cable_name =~ "Digilent JTAG-HS3 210299A566DE" && level==0} -index 1' command is executed.
13:45:09 INFO  : FPGA configured successfully with bitstream "W:/Common/70R/Students/7D-BU72_149/Thesis/Thomas/ZYNQ/cable_robotics/cable_robotics.sdk/top_level_hw_platform_0/top_level.bit"
13:45:24 INFO  : Disconnected from the channel tcfchan#2.
13:45:25 INFO  : 'targets -set -filter {jtag_cable_name =~ "Digilent JTAG-HS3 210299A566DE" && level==0} -index 1' command is executed.
13:45:25 INFO  : 'fpga -state' command is executed.
13:45:25 INFO  : Connected to target on host '127.0.0.1' and port '3121'.
13:45:25 INFO  : Jtag cable 'Digilent JTAG-HS3 210299A566DE' is selected.
13:45:25 INFO  : 'jtag frequency' command is executed.
13:45:25 INFO  : Sourcing of 'W:/Common/70R/Students/7D-BU72_149/Thesis/Thomas/ZYNQ/cable_robotics/cable_robotics.sdk/top_level_hw_platform_0/ps7_init.tcl' is done.
13:45:25 INFO  : Context for 'APU' is selected.
13:45:31 INFO  : Hardware design information is loaded from 'W:/Common/70R/Students/7D-BU72_149/Thesis/Thomas/ZYNQ/cable_robotics/cable_robotics.sdk/top_level_hw_platform_0/system.hdf'.
13:45:31 INFO  : 'configparams force-mem-access 1' command is executed.
13:45:31 INFO  : Context for 'APU' is selected.
13:45:31 INFO  : 'stop' command is executed.
13:45:31 INFO  : 'ps7_init' command is executed.
13:45:31 INFO  : 'ps7_post_config' command is executed.
13:45:31 INFO  : Context for processor 'ps7_cortexa9_0' is selected.
13:45:31 INFO  : Processor reset is completed for 'ps7_cortexa9_0'.
13:45:31 INFO  : Context for processor 'ps7_cortexa9_0' is selected.
13:45:31 INFO  : The application 'W:/Common/70R/Students/7D-BU72_149/Thesis/Thomas/ZYNQ/cable_robotics/cable_robotics.sdk/cable_robotics_sw/Debug/cable_robotics_sw.elf' is downloaded to processor 'ps7_cortexa9_0'.
13:45:31 INFO  : 'configparams force-mem-access 0' command is executed.
13:45:31 INFO  : ----------------XSDB Script----------------
connect -url tcp:127.0.0.1:3121
source W:/Common/70R/Students/7D-BU72_149/Thesis/Thomas/ZYNQ/cable_robotics/cable_robotics.sdk/top_level_hw_platform_0/ps7_init.tcl
targets -set -nocase -filter {name =~"APU*" && jtag_cable_name =~ "Digilent JTAG-HS3 210299A566DE"} -index 0
loadhw -hw W:/Common/70R/Students/7D-BU72_149/Thesis/Thomas/ZYNQ/cable_robotics/cable_robotics.sdk/top_level_hw_platform_0/system.hdf -mem-ranges [list {0x40000000 0xbfffffff}]
configparams force-mem-access 1
targets -set -nocase -filter {name =~"APU*" && jtag_cable_name =~ "Digilent JTAG-HS3 210299A566DE"} -index 0
stop
ps7_init
ps7_post_config
targets -set -nocase -filter {name =~ "ARM*#0" && jtag_cable_name =~ "Digilent JTAG-HS3 210299A566DE"} -index 0
rst -processor
targets -set -nocase -filter {name =~ "ARM*#0" && jtag_cable_name =~ "Digilent JTAG-HS3 210299A566DE"} -index 0
dow W:/Common/70R/Students/7D-BU72_149/Thesis/Thomas/ZYNQ/cable_robotics/cable_robotics.sdk/cable_robotics_sw/Debug/cable_robotics_sw.elf
configparams force-mem-access 0
----------------End of Script----------------

13:45:31 INFO  : Memory regions updated for context APU
13:45:32 INFO  : Context for processor 'ps7_cortexa9_0' is selected.
13:45:32 INFO  : 'con' command is executed.
13:45:32 INFO  : ----------------XSDB Script (After Launch)----------------
targets -set -nocase -filter {name =~ "ARM*#0" && jtag_cable_name =~ "Digilent JTAG-HS3 210299A566DE"} -index 0
con
----------------End of Script----------------

13:45:32 INFO  : Launch script is exported to file 'W:\Common\70R\Students\7D-BU72_149\Thesis\Thomas\ZYNQ\cable_robotics\cable_robotics.sdk\.sdk\launch_scripts\xilinx_c-c++_application_(system_debugger)\system_debugger_using_debug_cable_robotics_sw.elf_on_local.tcl'
13:47:14 INFO  : Connected to target on host '127.0.0.1' and port '3121'.
13:47:14 INFO  : 'targets -set -filter {jtag_cable_name =~ "Digilent JTAG-HS3 210299A566DE" && level==0} -index 1' command is executed.
13:47:16 INFO  : FPGA configured successfully with bitstream "W:/Common/70R/Students/7D-BU72_149/Thesis/Thomas/ZYNQ/cable_robotics/cable_robotics.sdk/top_level_hw_platform_0/top_level.bit"
13:47:30 INFO  : Disconnected from the channel tcfchan#3.
13:47:31 INFO  : 'targets -set -filter {jtag_cable_name =~ "Digilent JTAG-HS3 210299A566DE" && level==0} -index 1' command is executed.
13:47:31 INFO  : 'fpga -state' command is executed.
13:47:31 INFO  : Connected to target on host '127.0.0.1' and port '3121'.
13:47:31 INFO  : Jtag cable 'Digilent JTAG-HS3 210299A566DE' is selected.
13:47:31 INFO  : 'jtag frequency' command is executed.
13:47:31 INFO  : Sourcing of 'W:/Common/70R/Students/7D-BU72_149/Thesis/Thomas/ZYNQ/cable_robotics/cable_robotics.sdk/top_level_hw_platform_0/ps7_init.tcl' is done.
13:47:31 INFO  : Context for 'APU' is selected.
13:47:36 INFO  : Hardware design information is loaded from 'W:/Common/70R/Students/7D-BU72_149/Thesis/Thomas/ZYNQ/cable_robotics/cable_robotics.sdk/top_level_hw_platform_0/system.hdf'.
13:47:36 INFO  : 'configparams force-mem-access 1' command is executed.
13:47:36 INFO  : Context for 'APU' is selected.
13:47:37 INFO  : 'stop' command is executed.
13:47:37 INFO  : 'ps7_init' command is executed.
13:47:37 INFO  : 'ps7_post_config' command is executed.
13:47:37 INFO  : Context for processor 'ps7_cortexa9_0' is selected.
13:47:37 INFO  : Processor reset is completed for 'ps7_cortexa9_0'.
13:47:37 INFO  : Context for processor 'ps7_cortexa9_0' is selected.
13:47:37 INFO  : The application 'W:/Common/70R/Students/7D-BU72_149/Thesis/Thomas/ZYNQ/cable_robotics/cable_robotics.sdk/cable_robotics_sw/Debug/cable_robotics_sw.elf' is downloaded to processor 'ps7_cortexa9_0'.
13:47:37 INFO  : 'configparams force-mem-access 0' command is executed.
13:47:37 INFO  : ----------------XSDB Script----------------
connect -url tcp:127.0.0.1:3121
source W:/Common/70R/Students/7D-BU72_149/Thesis/Thomas/ZYNQ/cable_robotics/cable_robotics.sdk/top_level_hw_platform_0/ps7_init.tcl
targets -set -nocase -filter {name =~"APU*" && jtag_cable_name =~ "Digilent JTAG-HS3 210299A566DE"} -index 0
loadhw -hw W:/Common/70R/Students/7D-BU72_149/Thesis/Thomas/ZYNQ/cable_robotics/cable_robotics.sdk/top_level_hw_platform_0/system.hdf -mem-ranges [list {0x40000000 0xbfffffff}]
configparams force-mem-access 1
targets -set -nocase -filter {name =~"APU*" && jtag_cable_name =~ "Digilent JTAG-HS3 210299A566DE"} -index 0
stop
ps7_init
ps7_post_config
targets -set -nocase -filter {name =~ "ARM*#0" && jtag_cable_name =~ "Digilent JTAG-HS3 210299A566DE"} -index 0
rst -processor
targets -set -nocase -filter {name =~ "ARM*#0" && jtag_cable_name =~ "Digilent JTAG-HS3 210299A566DE"} -index 0
dow W:/Common/70R/Students/7D-BU72_149/Thesis/Thomas/ZYNQ/cable_robotics/cable_robotics.sdk/cable_robotics_sw/Debug/cable_robotics_sw.elf
configparams force-mem-access 0
----------------End of Script----------------

13:47:37 INFO  : Memory regions updated for context APU
13:47:37 INFO  : Context for processor 'ps7_cortexa9_0' is selected.
13:47:37 INFO  : 'con' command is executed.
13:47:37 INFO  : ----------------XSDB Script (After Launch)----------------
targets -set -nocase -filter {name =~ "ARM*#0" && jtag_cable_name =~ "Digilent JTAG-HS3 210299A566DE"} -index 0
con
----------------End of Script----------------

13:47:37 INFO  : Launch script is exported to file 'W:\Common\70R\Students\7D-BU72_149\Thesis\Thomas\ZYNQ\cable_robotics\cable_robotics.sdk\.sdk\launch_scripts\xilinx_c-c++_application_(system_debugger)\system_debugger_using_debug_cable_robotics_sw.elf_on_local.tcl'
15:19:13 INFO  : SDK has detected change in the last modified timestamps for source hardware specification file Source:1549462666459,  Project:1549446036866
15:19:13 INFO  : Project top_level_hw_platform_0's source hardware specification located at W:/Common/70R/Students/7D-BU72_149/Thesis/Thomas/ZYNQ/cable_robotics/cable_robotics.sdk/top_level.hdf is now different from the local copy.
		 The local copy will be replaced with the source specification and your workspace will be updated.
15:23:58 INFO  : Copied contents of W:/Common/70R/Students/7D-BU72_149/Thesis/Thomas/ZYNQ/cable_robotics/cable_robotics.sdk/top_level.hdf into \top_level_hw_platform_0\system.hdf.
15:24:06 INFO  : Synchronizing projects in the workspace with the hardware platform specification changes.
15:24:22 INFO  : 
15:24:23 INFO  : Updating hardware inferred compiler options for cable_robotics_sw.
15:24:23 INFO  : Clearing existing target manager status.
15:24:23 INFO  : Closing and re-opening the MSS file of ther project cable_robotics_sw_bsp
15:24:24 INFO  : Workspace synchronized with the new hardware specification file. Cleaning dependent projects...
15:24:30 WARN  : Linker script will not be updated automatically. Users need to update it manually.
15:42:15 INFO  : Inferring section assignments and sizes from elf file: W:\Common\70R\Students\7D-BU72_149\Thesis\Thomas\ZYNQ\cable_robotics\cable_robotics.sdk\cable_robotics_sw\Debug\cable_robotics_sw.elf
15:44:29 INFO  : Connected to target on host '127.0.0.1' and port '3121'.
15:44:29 INFO  : 'targets -set -filter {jtag_cable_name =~ "Digilent JTAG-HS3 210299A566DE" && level==0} -index 1' command is executed.
15:44:31 INFO  : FPGA configured successfully with bitstream "W:/Common/70R/Students/7D-BU72_149/Thesis/Thomas/ZYNQ/cable_robotics/cable_robotics.sdk/top_level_hw_platform_0/top_level.bit"
15:44:39 INFO  : Disconnected from the channel tcfchan#4.
15:44:40 INFO  : 'targets -set -filter {jtag_cable_name =~ "Digilent JTAG-HS3 210299A566DE" && level==0} -index 1' command is executed.
15:44:40 INFO  : 'fpga -state' command is executed.
15:44:40 INFO  : Connected to target on host '127.0.0.1' and port '3121'.
15:44:41 INFO  : Jtag cable 'Digilent JTAG-HS3 210299A566DE' is selected.
15:44:41 INFO  : 'jtag frequency' command is executed.
15:44:41 INFO  : Sourcing of 'W:/Common/70R/Students/7D-BU72_149/Thesis/Thomas/ZYNQ/cable_robotics/cable_robotics.sdk/top_level_hw_platform_0/ps7_init.tcl' is done.
15:44:41 INFO  : Context for 'APU' is selected.
15:44:41 INFO  : Hardware design information is loaded from 'W:/Common/70R/Students/7D-BU72_149/Thesis/Thomas/ZYNQ/cable_robotics/cable_robotics.sdk/top_level_hw_platform_0/system.hdf'.
15:44:41 INFO  : 'configparams force-mem-access 1' command is executed.
15:44:41 INFO  : Context for 'APU' is selected.
15:44:41 INFO  : 'stop' command is executed.
15:44:41 INFO  : 'ps7_init' command is executed.
15:44:41 INFO  : 'ps7_post_config' command is executed.
15:44:41 INFO  : Context for processor 'ps7_cortexa9_0' is selected.
15:44:41 INFO  : Processor reset is completed for 'ps7_cortexa9_0'.
15:44:41 INFO  : Context for processor 'ps7_cortexa9_0' is selected.
15:44:41 INFO  : The application 'W:/Common/70R/Students/7D-BU72_149/Thesis/Thomas/ZYNQ/cable_robotics/cable_robotics.sdk/cable_robotics_sw/Debug/cable_robotics_sw.elf' is downloaded to processor 'ps7_cortexa9_0'.
15:44:41 INFO  : 'configparams force-mem-access 0' command is executed.
15:44:41 INFO  : ----------------XSDB Script----------------
connect -url tcp:127.0.0.1:3121
source W:/Common/70R/Students/7D-BU72_149/Thesis/Thomas/ZYNQ/cable_robotics/cable_robotics.sdk/top_level_hw_platform_0/ps7_init.tcl
targets -set -nocase -filter {name =~"APU*" && jtag_cable_name =~ "Digilent JTAG-HS3 210299A566DE"} -index 0
loadhw -hw W:/Common/70R/Students/7D-BU72_149/Thesis/Thomas/ZYNQ/cable_robotics/cable_robotics.sdk/top_level_hw_platform_0/system.hdf -mem-ranges [list {0x40000000 0xbfffffff}]
configparams force-mem-access 1
targets -set -nocase -filter {name =~"APU*" && jtag_cable_name =~ "Digilent JTAG-HS3 210299A566DE"} -index 0
stop
ps7_init
ps7_post_config
targets -set -nocase -filter {name =~ "ARM*#0" && jtag_cable_name =~ "Digilent JTAG-HS3 210299A566DE"} -index 0
rst -processor
targets -set -nocase -filter {name =~ "ARM*#0" && jtag_cable_name =~ "Digilent JTAG-HS3 210299A566DE"} -index 0
dow W:/Common/70R/Students/7D-BU72_149/Thesis/Thomas/ZYNQ/cable_robotics/cable_robotics.sdk/cable_robotics_sw/Debug/cable_robotics_sw.elf
configparams force-mem-access 0
----------------End of Script----------------

15:44:42 INFO  : Memory regions updated for context APU
15:44:42 INFO  : Context for processor 'ps7_cortexa9_0' is selected.
15:44:42 INFO  : 'con' command is executed.
15:44:42 INFO  : ----------------XSDB Script (After Launch)----------------
targets -set -nocase -filter {name =~ "ARM*#0" && jtag_cable_name =~ "Digilent JTAG-HS3 210299A566DE"} -index 0
con
----------------End of Script----------------

15:44:42 INFO  : Launch script is exported to file 'W:\Common\70R\Students\7D-BU72_149\Thesis\Thomas\ZYNQ\cable_robotics\cable_robotics.sdk\.sdk\launch_scripts\xilinx_c-c++_application_(system_debugger)\system_debugger_using_debug_cable_robotics_sw.elf_on_local.tcl'
16:02:40 INFO  : SDK has detected change in the last modified timestamps for source hardware specification file Source:1549464969969,  Project:1549462666459
16:02:40 INFO  : Project top_level_hw_platform_0's source hardware specification located at W:/Common/70R/Students/7D-BU72_149/Thesis/Thomas/ZYNQ/cable_robotics/cable_robotics.sdk/top_level.hdf is now different from the local copy.
		 The local copy will be replaced with the source specification and your workspace will be updated.
16:02:46 INFO  : Copied contents of W:/Common/70R/Students/7D-BU72_149/Thesis/Thomas/ZYNQ/cable_robotics/cable_robotics.sdk/top_level.hdf into \top_level_hw_platform_0\system.hdf.
16:02:53 INFO  : Synchronizing projects in the workspace with the hardware platform specification changes.
16:03:08 INFO  : 
16:03:09 INFO  : Updating hardware inferred compiler options for cable_robotics_sw.
16:03:09 INFO  : Clearing existing target manager status.
16:03:09 INFO  : Closing and re-opening the MSS file of ther project cable_robotics_sw_bsp
16:03:11 INFO  : Workspace synchronized with the new hardware specification file. Cleaning dependent projects...
16:03:16 WARN  : Linker script will not be updated automatically. Users need to update it manually.
16:09:14 INFO  : Connected to target on host '127.0.0.1' and port '3121'.
16:09:14 INFO  : 'targets -set -filter {jtag_cable_name =~ "Digilent JTAG-HS3 210299A566DE" && level==0} -index 1' command is executed.
16:09:17 INFO  : FPGA configured successfully with bitstream "W:/Common/70R/Students/7D-BU72_149/Thesis/Thomas/ZYNQ/cable_robotics/cable_robotics.sdk/top_level_hw_platform_0/top_level.bit"
16:09:29 INFO  : Disconnected from the channel tcfchan#5.
16:09:31 INFO  : 'targets -set -filter {jtag_cable_name =~ "Digilent JTAG-HS3 210299A566DE" && level==0} -index 1' command is executed.
16:09:31 INFO  : 'fpga -state' command is executed.
16:09:31 INFO  : Connected to target on host '127.0.0.1' and port '3121'.
16:09:31 INFO  : Jtag cable 'Digilent JTAG-HS3 210299A566DE' is selected.
16:09:31 INFO  : 'jtag frequency' command is executed.
16:09:31 INFO  : Sourcing of 'W:/Common/70R/Students/7D-BU72_149/Thesis/Thomas/ZYNQ/cable_robotics/cable_robotics.sdk/top_level_hw_platform_0/ps7_init.tcl' is done.
16:09:31 INFO  : Context for 'APU' is selected.
16:09:31 INFO  : Hardware design information is loaded from 'W:/Common/70R/Students/7D-BU72_149/Thesis/Thomas/ZYNQ/cable_robotics/cable_robotics.sdk/top_level_hw_platform_0/system.hdf'.
16:09:31 INFO  : 'configparams force-mem-access 1' command is executed.
16:09:31 INFO  : Context for 'APU' is selected.
16:09:31 INFO  : 'stop' command is executed.
16:09:32 INFO  : 'ps7_init' command is executed.
16:09:32 INFO  : 'ps7_post_config' command is executed.
16:09:32 INFO  : Context for processor 'ps7_cortexa9_0' is selected.
16:09:32 INFO  : Processor reset is completed for 'ps7_cortexa9_0'.
16:09:32 INFO  : Context for processor 'ps7_cortexa9_0' is selected.
16:09:32 INFO  : The application 'W:/Common/70R/Students/7D-BU72_149/Thesis/Thomas/ZYNQ/cable_robotics/cable_robotics.sdk/cable_robotics_sw/Debug/cable_robotics_sw.elf' is downloaded to processor 'ps7_cortexa9_0'.
16:09:32 INFO  : 'configparams force-mem-access 0' command is executed.
16:09:32 INFO  : ----------------XSDB Script----------------
connect -url tcp:127.0.0.1:3121
source W:/Common/70R/Students/7D-BU72_149/Thesis/Thomas/ZYNQ/cable_robotics/cable_robotics.sdk/top_level_hw_platform_0/ps7_init.tcl
targets -set -nocase -filter {name =~"APU*" && jtag_cable_name =~ "Digilent JTAG-HS3 210299A566DE"} -index 0
loadhw -hw W:/Common/70R/Students/7D-BU72_149/Thesis/Thomas/ZYNQ/cable_robotics/cable_robotics.sdk/top_level_hw_platform_0/system.hdf -mem-ranges [list {0x40000000 0xbfffffff}]
configparams force-mem-access 1
targets -set -nocase -filter {name =~"APU*" && jtag_cable_name =~ "Digilent JTAG-HS3 210299A566DE"} -index 0
stop
ps7_init
ps7_post_config
targets -set -nocase -filter {name =~ "ARM*#0" && jtag_cable_name =~ "Digilent JTAG-HS3 210299A566DE"} -index 0
rst -processor
targets -set -nocase -filter {name =~ "ARM*#0" && jtag_cable_name =~ "Digilent JTAG-HS3 210299A566DE"} -index 0
dow W:/Common/70R/Students/7D-BU72_149/Thesis/Thomas/ZYNQ/cable_robotics/cable_robotics.sdk/cable_robotics_sw/Debug/cable_robotics_sw.elf
configparams force-mem-access 0
----------------End of Script----------------

16:09:32 INFO  : Memory regions updated for context APU
16:09:32 INFO  : Context for processor 'ps7_cortexa9_0' is selected.
16:09:32 INFO  : 'con' command is executed.
16:09:32 INFO  : ----------------XSDB Script (After Launch)----------------
targets -set -nocase -filter {name =~ "ARM*#0" && jtag_cable_name =~ "Digilent JTAG-HS3 210299A566DE"} -index 0
con
----------------End of Script----------------

16:09:32 INFO  : Launch script is exported to file 'W:\Common\70R\Students\7D-BU72_149\Thesis\Thomas\ZYNQ\cable_robotics\cable_robotics.sdk\.sdk\launch_scripts\xilinx_c-c++_application_(system_debugger)\system_debugger_using_debug_cable_robotics_sw.elf_on_local.tcl'
13:01:42 INFO  : Registering command handlers for SDK TCF services
13:01:42 INFO  : Launching XSCT server: xsct.bat -interactive W:\Common\70R\Students\7D-BU72_149\Thesis\Thomas\ZYNQ\cable_robotics\cable_robotics.sdk\temp_xsdb_launch_script.tcl
13:01:47 INFO  : XSCT server has started successfully.
13:01:47 INFO  : Successfully done setting XSCT server connection channel  
13:01:49 INFO  : Processing command line option -hwspec W:/Common/70R/Students/7D-BU72_149/Thesis/Thomas/ZYNQ/cable_robotics/cable_robotics.sdk/top_level.hdf.
13:01:49 INFO  : Successfully done setting SDK workspace  
13:01:49 INFO  : Checking for hwspec changes in the project top_level_hw_platform_0.
13:01:55 INFO  : SDK has detected change in the last modified timestamps for source hardware specification file Source:1550049776613,  Project:1549464969969
13:01:55 INFO  : The hardware specification for project 'top_level_hw_platform_0' is different from W:/Common/70R/Students/7D-BU72_149/Thesis/Thomas/ZYNQ/cable_robotics/cable_robotics.sdk/top_level.hdf.
13:01:56 INFO  : Copied contents of W:/Common/70R/Students/7D-BU72_149/Thesis/Thomas/ZYNQ/cable_robotics/cable_robotics.sdk/top_level.hdf into \top_level_hw_platform_0\system.hdf.
13:02:02 INFO  : Synchronizing projects in the workspace with the hardware platform specification changes.
09:06:40 INFO  : Registering command handlers for SDK TCF services
09:06:41 INFO  : Launching XSCT server: xsct.bat -interactive W:\Common\70R\Students\7D-BU72_149\Thesis\Thomas\ZYNQ\cable_robotics\cable_robotics.sdk\temp_xsdb_launch_script.tcl
09:06:45 INFO  : XSCT server has started successfully.
09:06:48 INFO  : Successfully done setting XSCT server connection channel  
09:06:48 INFO  : Processing command line option -hwspec W:/Common/70R/Students/7D-BU72_149/Thesis/Thomas/ZYNQ/cable_robotics/cable_robotics.sdk/top_level.hdf.
09:06:48 INFO  : Successfully done setting SDK workspace  
09:06:48 INFO  : Checking for hwspec changes in the project top_level_hw_platform_0.
10:52:10 INFO  : Registering command handlers for SDK TCF services
10:52:11 INFO  : Launching XSCT server: xsct.bat -interactive W:\Common\70R\Students\7D-BU72_149\Thesis\Thomas\ZYNQ\cable_robotics\cable_robotics.sdk\temp_xsdb_launch_script.tcl
10:52:16 INFO  : XSCT server has started successfully.
10:52:16 INFO  : Successfully done setting XSCT server connection channel  
10:52:17 INFO  : Processing command line option -hwspec W:/Common/70R/Students/7D-BU72_149/Thesis/Thomas/ZYNQ/cable_robotics/cable_robotics.sdk/top_level.hdf.
10:52:17 INFO  : Successfully done setting SDK workspace  
10:52:17 INFO  : Checking for hwspec changes in the project top_level_hw_platform_0.
10:52:28 INFO  : Connected to target on host '127.0.0.1' and port '3121'.
10:52:28 INFO  : 'targets -set -filter {jtag_cable_name =~ "Digilent JTAG-HS3 210299A566DE" && level==0} -index 1' command is executed.
10:52:31 INFO  : FPGA configured successfully with bitstream "W:/Common/70R/Students/7D-BU72_149/Thesis/Thomas/ZYNQ/cable_robotics/cable_robotics.sdk/top_level_hw_platform_0/top_level.bit"
10:52:36 INFO  : 'targets -set -filter {jtag_cable_name =~ "Digilent JTAG-HS3 210299A566DE" && level==0} -index 1' command is executed.
10:52:36 INFO  : 'fpga -state' command is executed.
10:52:36 INFO  : Connected to target on host '127.0.0.1' and port '3121'.
10:52:36 INFO  : Jtag cable 'Digilent JTAG-HS3 210299A566DE' is selected.
10:52:36 INFO  : 'jtag frequency' command is executed.
10:52:36 INFO  : Sourcing of 'W:/Common/70R/Students/7D-BU72_149/Thesis/Thomas/ZYNQ/cable_robotics/cable_robotics.sdk/top_level_hw_platform_0/ps7_init.tcl' is done.
10:52:36 INFO  : Context for 'APU' is selected.
10:52:36 INFO  : Hardware design information is loaded from 'W:/Common/70R/Students/7D-BU72_149/Thesis/Thomas/ZYNQ/cable_robotics/cable_robotics.sdk/top_level_hw_platform_0/system.hdf'.
10:52:36 INFO  : 'configparams force-mem-access 1' command is executed.
10:52:36 INFO  : Context for 'APU' is selected.
10:52:36 INFO  : 'stop' command is executed.
10:52:36 ERROR : Memory read error at 0xF8007080. AHB AP transaction error, DAP status f0000021
10:52:36 INFO  : ----------------XSDB Script----------------
connect -url tcp:127.0.0.1:3121
source W:/Common/70R/Students/7D-BU72_149/Thesis/Thomas/ZYNQ/cable_robotics/cable_robotics.sdk/top_level_hw_platform_0/ps7_init.tcl
targets -set -nocase -filter {name =~"APU*" && jtag_cable_name =~ "Digilent JTAG-HS3 210299A566DE"} -index 0
loadhw -hw W:/Common/70R/Students/7D-BU72_149/Thesis/Thomas/ZYNQ/cable_robotics/cable_robotics.sdk/top_level_hw_platform_0/system.hdf -mem-ranges [list {0x40000000 0xbfffffff}]
configparams force-mem-access 1
targets -set -nocase -filter {name =~"APU*" && jtag_cable_name =~ "Digilent JTAG-HS3 210299A566DE"} -index 0
stop
ps7_init
----------------End of Script----------------

10:53:04 INFO  : Connected to target on host '127.0.0.1' and port '3121'.
10:53:04 INFO  : 'targets -set -filter {jtag_cable_name =~ "Digilent JTAG-HS3 210299A566DE" && level==0} -index 1' command is executed.
10:53:06 INFO  : FPGA configured successfully with bitstream "W:/Common/70R/Students/7D-BU72_149/Thesis/Thomas/ZYNQ/cable_robotics/cable_robotics.sdk/top_level_hw_platform_0/top_level.bit"
10:53:19 INFO  : 'targets -set -filter {jtag_cable_name =~ "Digilent JTAG-HS3 210299A566DE" && level==0} -index 1' command is executed.
10:53:19 INFO  : 'fpga -state' command is executed.
10:53:19 INFO  : Connected to target on host '127.0.0.1' and port '3121'.
10:53:19 INFO  : Jtag cable 'Digilent JTAG-HS3 210299A566DE' is selected.
10:53:19 INFO  : 'jtag frequency' command is executed.
10:53:19 INFO  : Sourcing of 'W:/Common/70R/Students/7D-BU72_149/Thesis/Thomas/ZYNQ/cable_robotics/cable_robotics.sdk/top_level_hw_platform_0/ps7_init.tcl' is done.
10:53:19 INFO  : Context for 'APU' is selected.
10:53:19 INFO  : Hardware design information is loaded from 'W:/Common/70R/Students/7D-BU72_149/Thesis/Thomas/ZYNQ/cable_robotics/cable_robotics.sdk/top_level_hw_platform_0/system.hdf'.
10:53:19 INFO  : 'configparams force-mem-access 1' command is executed.
10:53:19 INFO  : Context for 'APU' is selected.
10:53:19 INFO  : 'stop' command is executed.
10:53:19 INFO  : 'ps7_init' command is executed.
10:53:19 INFO  : 'ps7_post_config' command is executed.
10:53:19 INFO  : Context for processor 'ps7_cortexa9_0' is selected.
10:53:19 INFO  : Processor reset is completed for 'ps7_cortexa9_0'.
10:53:20 INFO  : Context for processor 'ps7_cortexa9_0' is selected.
10:53:20 INFO  : The application 'W:/Common/70R/Students/7D-BU72_149/Thesis/Thomas/ZYNQ/cable_robotics/cable_robotics.sdk/cable_robotics_sw/Debug/cable_robotics_sw.elf' is downloaded to processor 'ps7_cortexa9_0'.
10:53:20 INFO  : 'configparams force-mem-access 0' command is executed.
10:53:20 INFO  : ----------------XSDB Script----------------
connect -url tcp:127.0.0.1:3121
source W:/Common/70R/Students/7D-BU72_149/Thesis/Thomas/ZYNQ/cable_robotics/cable_robotics.sdk/top_level_hw_platform_0/ps7_init.tcl
targets -set -nocase -filter {name =~"APU*" && jtag_cable_name =~ "Digilent JTAG-HS3 210299A566DE"} -index 0
loadhw -hw W:/Common/70R/Students/7D-BU72_149/Thesis/Thomas/ZYNQ/cable_robotics/cable_robotics.sdk/top_level_hw_platform_0/system.hdf -mem-ranges [list {0x40000000 0xbfffffff}]
configparams force-mem-access 1
targets -set -nocase -filter {name =~"APU*" && jtag_cable_name =~ "Digilent JTAG-HS3 210299A566DE"} -index 0
stop
ps7_init
ps7_post_config
targets -set -nocase -filter {name =~ "ARM*#0" && jtag_cable_name =~ "Digilent JTAG-HS3 210299A566DE"} -index 0
rst -processor
targets -set -nocase -filter {name =~ "ARM*#0" && jtag_cable_name =~ "Digilent JTAG-HS3 210299A566DE"} -index 0
dow W:/Common/70R/Students/7D-BU72_149/Thesis/Thomas/ZYNQ/cable_robotics/cable_robotics.sdk/cable_robotics_sw/Debug/cable_robotics_sw.elf
configparams force-mem-access 0
----------------End of Script----------------

10:53:20 INFO  : Memory regions updated for context APU
10:53:20 INFO  : Context for processor 'ps7_cortexa9_0' is selected.
10:53:20 INFO  : 'con' command is executed.
10:53:20 INFO  : ----------------XSDB Script (After Launch)----------------
targets -set -nocase -filter {name =~ "ARM*#0" && jtag_cable_name =~ "Digilent JTAG-HS3 210299A566DE"} -index 0
con
----------------End of Script----------------

10:53:20 INFO  : Launch script is exported to file 'W:\Common\70R\Students\7D-BU72_149\Thesis\Thomas\ZYNQ\cable_robotics\cable_robotics.sdk\.sdk\launch_scripts\xilinx_c-c++_application_(system_debugger)\system_debugger_using_debug_cable_robotics_sw.elf_on_local.tcl'
10:54:54 INFO  : Disconnected from the channel tcfchan#1.
10:54:55 INFO  : 'targets -set -filter {jtag_cable_name =~ "Digilent JTAG-HS3 210299A566DE" && level==0} -index 1' command is executed.
10:54:55 INFO  : 'fpga -state' command is executed.
10:54:55 INFO  : Connected to target on host '127.0.0.1' and port '3121'.
10:54:55 INFO  : Jtag cable 'Digilent JTAG-HS3 210299A566DE' is selected.
10:54:55 INFO  : 'jtag frequency' command is executed.
10:54:55 INFO  : Sourcing of 'W:/Common/70R/Students/7D-BU72_149/Thesis/Thomas/ZYNQ/cable_robotics/cable_robotics.sdk/top_level_hw_platform_0/ps7_init.tcl' is done.
10:54:56 INFO  : Context for 'APU' is selected.
10:55:01 INFO  : Hardware design information is loaded from 'W:/Common/70R/Students/7D-BU72_149/Thesis/Thomas/ZYNQ/cable_robotics/cable_robotics.sdk/top_level_hw_platform_0/system.hdf'.
10:55:01 INFO  : 'configparams force-mem-access 1' command is executed.
10:55:01 INFO  : Context for 'APU' is selected.
10:55:01 INFO  : 'stop' command is executed.
10:55:01 INFO  : 'ps7_init' command is executed.
10:55:01 INFO  : 'ps7_post_config' command is executed.
10:55:01 INFO  : Context for processor 'ps7_cortexa9_0' is selected.
10:55:01 INFO  : Processor reset is completed for 'ps7_cortexa9_0'.
10:55:01 INFO  : Context for processor 'ps7_cortexa9_0' is selected.
10:55:02 INFO  : The application 'W:/Common/70R/Students/7D-BU72_149/Thesis/Thomas/ZYNQ/cable_robotics/cable_robotics.sdk/cable_robotics_sw/Debug/cable_robotics_sw.elf' is downloaded to processor 'ps7_cortexa9_0'.
10:55:02 INFO  : 'configparams force-mem-access 0' command is executed.
10:55:02 INFO  : ----------------XSDB Script----------------
connect -url tcp:127.0.0.1:3121
source W:/Common/70R/Students/7D-BU72_149/Thesis/Thomas/ZYNQ/cable_robotics/cable_robotics.sdk/top_level_hw_platform_0/ps7_init.tcl
targets -set -nocase -filter {name =~"APU*" && jtag_cable_name =~ "Digilent JTAG-HS3 210299A566DE"} -index 0
loadhw -hw W:/Common/70R/Students/7D-BU72_149/Thesis/Thomas/ZYNQ/cable_robotics/cable_robotics.sdk/top_level_hw_platform_0/system.hdf -mem-ranges [list {0x40000000 0xbfffffff}]
configparams force-mem-access 1
targets -set -nocase -filter {name =~"APU*" && jtag_cable_name =~ "Digilent JTAG-HS3 210299A566DE"} -index 0
stop
ps7_init
ps7_post_config
targets -set -nocase -filter {name =~ "ARM*#0" && jtag_cable_name =~ "Digilent JTAG-HS3 210299A566DE"} -index 0
rst -processor
targets -set -nocase -filter {name =~ "ARM*#0" && jtag_cable_name =~ "Digilent JTAG-HS3 210299A566DE"} -index 0
dow W:/Common/70R/Students/7D-BU72_149/Thesis/Thomas/ZYNQ/cable_robotics/cable_robotics.sdk/cable_robotics_sw/Debug/cable_robotics_sw.elf
configparams force-mem-access 0
----------------End of Script----------------

10:55:02 INFO  : Memory regions updated for context APU
10:55:02 INFO  : Context for processor 'ps7_cortexa9_0' is selected.
10:55:02 INFO  : 'con' command is executed.
10:55:02 INFO  : ----------------XSDB Script (After Launch)----------------
targets -set -nocase -filter {name =~ "ARM*#0" && jtag_cable_name =~ "Digilent JTAG-HS3 210299A566DE"} -index 0
con
----------------End of Script----------------

10:55:02 INFO  : Launch script is exported to file 'W:\Common\70R\Students\7D-BU72_149\Thesis\Thomas\ZYNQ\cable_robotics\cable_robotics.sdk\.sdk\launch_scripts\xilinx_c-c++_application_(system_debugger)\system_debugger_using_debug_cable_robotics_sw.elf_on_local.tcl'
10:56:51 INFO  : Disconnected from the channel tcfchan#2.
10:56:52 INFO  : 'targets -set -filter {jtag_cable_name =~ "Digilent JTAG-HS3 210299A566DE" && level==0} -index 1' command is executed.
10:56:52 INFO  : 'fpga -state' command is executed.
10:56:52 INFO  : Connected to target on host '127.0.0.1' and port '3121'.
10:56:52 INFO  : Jtag cable 'Digilent JTAG-HS3 210299A566DE' is selected.
10:56:52 INFO  : 'jtag frequency' command is executed.
10:56:52 INFO  : Sourcing of 'W:/Common/70R/Students/7D-BU72_149/Thesis/Thomas/ZYNQ/cable_robotics/cable_robotics.sdk/top_level_hw_platform_0/ps7_init.tcl' is done.
10:56:52 INFO  : Context for 'APU' is selected.
10:56:58 INFO  : Hardware design information is loaded from 'W:/Common/70R/Students/7D-BU72_149/Thesis/Thomas/ZYNQ/cable_robotics/cable_robotics.sdk/top_level_hw_platform_0/system.hdf'.
10:56:58 INFO  : 'configparams force-mem-access 1' command is executed.
10:56:58 INFO  : Context for 'APU' is selected.
10:56:58 INFO  : 'stop' command is executed.
10:56:58 ERROR : Memory read error at 0xF8007080. AHB AP transaction error, DAP status f0000021
10:56:58 INFO  : ----------------XSDB Script----------------
connect -url tcp:127.0.0.1:3121
source W:/Common/70R/Students/7D-BU72_149/Thesis/Thomas/ZYNQ/cable_robotics/cable_robotics.sdk/top_level_hw_platform_0/ps7_init.tcl
targets -set -nocase -filter {name =~"APU*" && jtag_cable_name =~ "Digilent JTAG-HS3 210299A566DE"} -index 0
loadhw -hw W:/Common/70R/Students/7D-BU72_149/Thesis/Thomas/ZYNQ/cable_robotics/cable_robotics.sdk/top_level_hw_platform_0/system.hdf -mem-ranges [list {0x40000000 0xbfffffff}]
configparams force-mem-access 1
targets -set -nocase -filter {name =~"APU*" && jtag_cable_name =~ "Digilent JTAG-HS3 210299A566DE"} -index 0
stop
ps7_init
----------------End of Script----------------

10:57:15 INFO  : 'targets -set -filter {jtag_cable_name =~ "Digilent JTAG-HS3 210299A566DE" && level==0} -index 1' command is executed.
10:57:15 INFO  : 'fpga -state' command is executed.
10:57:17 INFO  : Connected to target on host '127.0.0.1' and port '3121'.
10:57:18 INFO  : Jtag cable 'Digilent JTAG-HS3 210299A566DE' is selected.
10:57:18 INFO  : 'jtag frequency' command is executed.
10:57:18 INFO  : Sourcing of 'W:/Common/70R/Students/7D-BU72_149/Thesis/Thomas/ZYNQ/cable_robotics/cable_robotics.sdk/top_level_hw_platform_0/ps7_init.tcl' is done.
10:57:18 INFO  : Context for 'APU' is selected.
10:57:18 INFO  : Hardware design information is loaded from 'W:/Common/70R/Students/7D-BU72_149/Thesis/Thomas/ZYNQ/cable_robotics/cable_robotics.sdk/top_level_hw_platform_0/system.hdf'.
10:57:18 INFO  : 'configparams force-mem-access 1' command is executed.
10:57:18 INFO  : Context for 'APU' is selected.
10:57:18 INFO  : 'stop' command is executed.
10:57:18 ERROR : AP transaction error, DAP status f0000021
10:57:18 INFO  : ----------------XSDB Script----------------
connect -url tcp:127.0.0.1:3121
source W:/Common/70R/Students/7D-BU72_149/Thesis/Thomas/ZYNQ/cable_robotics/cable_robotics.sdk/top_level_hw_platform_0/ps7_init.tcl
targets -set -nocase -filter {name =~"APU*" && jtag_cable_name =~ "Digilent JTAG-HS3 210299A566DE"} -index 0
loadhw -hw W:/Common/70R/Students/7D-BU72_149/Thesis/Thomas/ZYNQ/cable_robotics/cable_robotics.sdk/top_level_hw_platform_0/system.hdf -mem-ranges [list {0x40000000 0xbfffffff}]
configparams force-mem-access 1
targets -set -nocase -filter {name =~"APU*" && jtag_cable_name =~ "Digilent JTAG-HS3 210299A566DE"} -index 0
stop
ps7_init
----------------End of Script----------------

10:57:27 INFO  : Connected to target on host '127.0.0.1' and port '3121'.
10:57:27 INFO  : 'targets -set -filter {jtag_cable_name =~ "Digilent JTAG-HS3 210299A566DE" && level==0} -index 1' command is executed.
10:57:30 ERROR : fpga configuration failed. DONE PIN is not HIGH
10:57:39 INFO  : Connected to target on host '127.0.0.1' and port '3121'.
10:57:39 INFO  : 'targets -set -filter {jtag_cable_name =~ "Digilent JTAG-HS3 210299A566DE" && level==0} -index 1' command is executed.
10:57:42 INFO  : FPGA configured successfully with bitstream "W:/Common/70R/Students/7D-BU72_149/Thesis/Thomas/ZYNQ/cable_robotics/cable_robotics.sdk/top_level_hw_platform_0/top_level.bit"
10:57:46 INFO  : 'targets -set -filter {jtag_cable_name =~ "Digilent JTAG-HS3 210299A566DE" && level==0} -index 1' command is executed.
10:57:46 INFO  : 'fpga -state' command is executed.
10:57:46 INFO  : Connected to target on host '127.0.0.1' and port '3121'.
10:57:47 INFO  : Jtag cable 'Digilent JTAG-HS3 210299A566DE' is selected.
10:57:47 INFO  : 'jtag frequency' command is executed.
10:57:47 INFO  : Sourcing of 'W:/Common/70R/Students/7D-BU72_149/Thesis/Thomas/ZYNQ/cable_robotics/cable_robotics.sdk/top_level_hw_platform_0/ps7_init.tcl' is done.
10:57:47 INFO  : Context for 'APU' is selected.
10:57:47 INFO  : Hardware design information is loaded from 'W:/Common/70R/Students/7D-BU72_149/Thesis/Thomas/ZYNQ/cable_robotics/cable_robotics.sdk/top_level_hw_platform_0/system.hdf'.
10:57:47 INFO  : 'configparams force-mem-access 1' command is executed.
10:57:47 INFO  : Context for 'APU' is selected.
10:57:47 INFO  : 'stop' command is executed.
10:57:47 INFO  : 'ps7_init' command is executed.
10:57:47 INFO  : 'ps7_post_config' command is executed.
10:57:47 INFO  : Context for processor 'ps7_cortexa9_0' is selected.
10:57:47 INFO  : Processor reset is completed for 'ps7_cortexa9_0'.
10:57:47 INFO  : Context for processor 'ps7_cortexa9_0' is selected.
10:57:47 INFO  : The application 'W:/Common/70R/Students/7D-BU72_149/Thesis/Thomas/ZYNQ/cable_robotics/cable_robotics.sdk/cable_robotics_sw/Debug/cable_robotics_sw.elf' is downloaded to processor 'ps7_cortexa9_0'.
10:57:47 INFO  : 'configparams force-mem-access 0' command is executed.
10:57:47 INFO  : ----------------XSDB Script----------------
connect -url tcp:127.0.0.1:3121
source W:/Common/70R/Students/7D-BU72_149/Thesis/Thomas/ZYNQ/cable_robotics/cable_robotics.sdk/top_level_hw_platform_0/ps7_init.tcl
targets -set -nocase -filter {name =~"APU*" && jtag_cable_name =~ "Digilent JTAG-HS3 210299A566DE"} -index 0
loadhw -hw W:/Common/70R/Students/7D-BU72_149/Thesis/Thomas/ZYNQ/cable_robotics/cable_robotics.sdk/top_level_hw_platform_0/system.hdf -mem-ranges [list {0x40000000 0xbfffffff}]
configparams force-mem-access 1
targets -set -nocase -filter {name =~"APU*" && jtag_cable_name =~ "Digilent JTAG-HS3 210299A566DE"} -index 0
stop
ps7_init
ps7_post_config
targets -set -nocase -filter {name =~ "ARM*#0" && jtag_cable_name =~ "Digilent JTAG-HS3 210299A566DE"} -index 0
rst -processor
targets -set -nocase -filter {name =~ "ARM*#0" && jtag_cable_name =~ "Digilent JTAG-HS3 210299A566DE"} -index 0
dow W:/Common/70R/Students/7D-BU72_149/Thesis/Thomas/ZYNQ/cable_robotics/cable_robotics.sdk/cable_robotics_sw/Debug/cable_robotics_sw.elf
configparams force-mem-access 0
----------------End of Script----------------

10:57:47 INFO  : Memory regions updated for context APU
10:57:48 INFO  : Context for processor 'ps7_cortexa9_0' is selected.
10:57:48 INFO  : 'con' command is executed.
10:57:48 INFO  : ----------------XSDB Script (After Launch)----------------
targets -set -nocase -filter {name =~ "ARM*#0" && jtag_cable_name =~ "Digilent JTAG-HS3 210299A566DE"} -index 0
con
----------------End of Script----------------

10:57:48 INFO  : Launch script is exported to file 'W:\Common\70R\Students\7D-BU72_149\Thesis\Thomas\ZYNQ\cable_robotics\cable_robotics.sdk\.sdk\launch_scripts\xilinx_c-c++_application_(system_debugger)\system_debugger_using_debug_cable_robotics_sw.elf_on_local.tcl'
10:58:50 INFO  : Inferring section assignments and sizes from elf file: W:\Common\70R\Students\7D-BU72_149\Thesis\Thomas\ZYNQ\cable_robotics\cable_robotics.sdk\cable_robotics_sw\Debug\cable_robotics_sw.elf
11:00:11 INFO  : Inferring section assignments and sizes from elf file: W:\Common\70R\Students\7D-BU72_149\Thesis\Thomas\ZYNQ\cable_robotics\cable_robotics.sdk\cable_robotics_sw\Debug\cable_robotics_sw.elf
11:00:17 INFO  : Inferring section assignments and sizes from elf file: W:\Common\70R\Students\7D-BU72_149\Thesis\Thomas\ZYNQ\cable_robotics\cable_robotics.sdk\ZYNQ_FSBL\Debug\ZYNQ_FSBL.elf
11:03:02 INFO  : Connected to target on host '127.0.0.1' and port '3121'.
11:03:02 INFO  : 'targets -set -filter {jtag_cable_name =~ "Digilent JTAG-HS3 210299A566DE" && level==0} -index 1' command is executed.
11:03:04 INFO  : FPGA configured successfully with bitstream "W:/Common/70R/Students/7D-BU72_149/Thesis/Thomas/ZYNQ/cable_robotics/cable_robotics.sdk/top_level_hw_platform_0/top_level.bit"
11:03:09 INFO  : Disconnected from the channel tcfchan#3.
11:03:10 INFO  : 'targets -set -filter {jtag_cable_name =~ "Digilent JTAG-HS3 210299A566DE" && level==0} -index 1' command is executed.
11:03:10 INFO  : 'fpga -state' command is executed.
11:03:10 INFO  : Connected to target on host '127.0.0.1' and port '3121'.
11:03:11 INFO  : Jtag cable 'Digilent JTAG-HS3 210299A566DE' is selected.
11:03:11 INFO  : 'jtag frequency' command is executed.
11:03:11 INFO  : Sourcing of 'W:/Common/70R/Students/7D-BU72_149/Thesis/Thomas/ZYNQ/cable_robotics/cable_robotics.sdk/top_level_hw_platform_0/ps7_init.tcl' is done.
11:03:14 ERROR : no targets found with "name =~"APU*" && jtag_cable_name =~ "Digilent JTAG-HS3 210299A566DE"". available targets:
  1  DAP (JTAG port open error. AP transaction error, DAP status 30000021)
  2* xc7z020
11:03:14 INFO  : ----------------XSDB Script----------------
connect -url tcp:127.0.0.1:3121
source W:/Common/70R/Students/7D-BU72_149/Thesis/Thomas/ZYNQ/cable_robotics/cable_robotics.sdk/top_level_hw_platform_0/ps7_init.tcl
targets -set -nocase -filter {name =~"APU*" && jtag_cable_name =~ "Digilent JTAG-HS3 210299A566DE"} -index 0
----------------End of Script----------------

11:04:02 INFO  : Connected to target on host '127.0.0.1' and port '3121'.
11:04:02 INFO  : 'targets -set -filter {jtag_cable_name =~ "Digilent JTAG-HS3 210299A566DE" && level==0} -index 1' command is executed.
11:04:05 INFO  : FPGA configured successfully with bitstream "W:/Common/70R/Students/7D-BU72_149/Thesis/Thomas/ZYNQ/cable_robotics/cable_robotics.sdk/top_level_hw_platform_0/top_level.bit"
11:04:09 INFO  : 'targets -set -filter {jtag_cable_name =~ "Digilent JTAG-HS3 210299A566DE" && level==0} -index 1' command is executed.
11:04:09 INFO  : 'fpga -state' command is executed.
11:04:09 INFO  : Connected to target on host '127.0.0.1' and port '3121'.
11:04:09 INFO  : Jtag cable 'Digilent JTAG-HS3 210299A566DE' is selected.
11:04:09 INFO  : 'jtag frequency' command is executed.
11:04:09 INFO  : Sourcing of 'W:/Common/70R/Students/7D-BU72_149/Thesis/Thomas/ZYNQ/cable_robotics/cable_robotics.sdk/top_level_hw_platform_0/ps7_init.tcl' is done.
11:04:09 INFO  : Context for 'APU' is selected.
11:04:09 INFO  : Hardware design information is loaded from 'W:/Common/70R/Students/7D-BU72_149/Thesis/Thomas/ZYNQ/cable_robotics/cable_robotics.sdk/top_level_hw_platform_0/system.hdf'.
11:04:09 INFO  : 'configparams force-mem-access 1' command is executed.
11:04:09 INFO  : Context for 'APU' is selected.
11:04:09 INFO  : 'stop' command is executed.
11:04:09 INFO  : 'ps7_init' command is executed.
11:04:09 INFO  : 'ps7_post_config' command is executed.
11:04:09 INFO  : Context for processor 'ps7_cortexa9_0' is selected.
11:04:09 INFO  : Processor reset is completed for 'ps7_cortexa9_0'.
11:04:09 INFO  : Context for processor 'ps7_cortexa9_0' is selected.
11:04:10 INFO  : The application 'W:/Common/70R/Students/7D-BU72_149/Thesis/Thomas/ZYNQ/cable_robotics/cable_robotics.sdk/cable_robotics_sw/Debug/cable_robotics_sw.elf' is downloaded to processor 'ps7_cortexa9_0'.
11:04:10 INFO  : 'configparams force-mem-access 0' command is executed.
11:04:10 INFO  : ----------------XSDB Script----------------
connect -url tcp:127.0.0.1:3121
source W:/Common/70R/Students/7D-BU72_149/Thesis/Thomas/ZYNQ/cable_robotics/cable_robotics.sdk/top_level_hw_platform_0/ps7_init.tcl
targets -set -nocase -filter {name =~"APU*" && jtag_cable_name =~ "Digilent JTAG-HS3 210299A566DE"} -index 0
loadhw -hw W:/Common/70R/Students/7D-BU72_149/Thesis/Thomas/ZYNQ/cable_robotics/cable_robotics.sdk/top_level_hw_platform_0/system.hdf -mem-ranges [list {0x40000000 0xbfffffff}]
configparams force-mem-access 1
targets -set -nocase -filter {name =~"APU*" && jtag_cable_name =~ "Digilent JTAG-HS3 210299A566DE"} -index 0
stop
ps7_init
ps7_post_config
targets -set -nocase -filter {name =~ "ARM*#0" && jtag_cable_name =~ "Digilent JTAG-HS3 210299A566DE"} -index 0
rst -processor
targets -set -nocase -filter {name =~ "ARM*#0" && jtag_cable_name =~ "Digilent JTAG-HS3 210299A566DE"} -index 0
dow W:/Common/70R/Students/7D-BU72_149/Thesis/Thomas/ZYNQ/cable_robotics/cable_robotics.sdk/cable_robotics_sw/Debug/cable_robotics_sw.elf
configparams force-mem-access 0
----------------End of Script----------------

11:04:10 INFO  : Memory regions updated for context APU
11:04:10 INFO  : Context for processor 'ps7_cortexa9_0' is selected.
11:04:10 INFO  : 'con' command is executed.
11:04:10 INFO  : ----------------XSDB Script (After Launch)----------------
targets -set -nocase -filter {name =~ "ARM*#0" && jtag_cable_name =~ "Digilent JTAG-HS3 210299A566DE"} -index 0
con
----------------End of Script----------------

11:04:10 INFO  : Launch script is exported to file 'W:\Common\70R\Students\7D-BU72_149\Thesis\Thomas\ZYNQ\cable_robotics\cable_robotics.sdk\.sdk\launch_scripts\xilinx_c-c++_application_(system_debugger)\system_debugger_using_debug_cable_robotics_sw.elf_on_local.tcl'
11:06:51 INFO  : Inferring section assignments and sizes from elf file: W:\Common\70R\Students\7D-BU72_149\Thesis\Thomas\ZYNQ\cable_robotics\cable_robotics.sdk\cable_robotics_sw\Debug\cable_robotics_sw.elf
11:16:37 INFO  : Inferring section assignments and sizes from elf file: W:\Common\70R\Students\7D-BU72_149\Thesis\Thomas\ZYNQ\cable_robotics\cable_robotics.sdk\cable_robotics_sw\Debug\cable_robotics_sw.elf
11:45:42 INFO  : Connected to target on host '127.0.0.1' and port '3121'.
11:45:42 INFO  : 'targets -set -filter {jtag_cable_name =~ "Digilent JTAG-HS3 210299A566DE" && level==0} -index 1' command is executed.
11:45:44 ERROR : 'fpga -file W:/Common/70R/Students/7D-BU72_149/Thesis/Thomas/ZYNQ/cable_robotics/cable_robotics.sdk/top_level_hw_platform_0/top_level.bit' is cancelled.
11:45:44 INFO  : Issued abort command to xsdb.
13:26:20 INFO  : Registering command handlers for SDK TCF services
13:26:21 INFO  : Launching XSCT server: xsct.bat -interactive W:\Common\70R\Students\7D-BU72_149\Thesis\Thomas\ZYNQ\cable_robotics\cable_robotics.sdk\temp_xsdb_launch_script.tcl
13:26:25 INFO  : XSCT server has started successfully.
13:26:25 INFO  : Successfully done setting XSCT server connection channel  
13:26:27 INFO  : Processing command line option -hwspec W:/Common/70R/Students/7D-BU72_149/Thesis/Thomas/ZYNQ/cable_robotics/cable_robotics.sdk/top_level.hdf.
13:26:27 INFO  : Successfully done setting SDK workspace  
13:26:27 INFO  : Checking for hwspec changes in the project top_level_hw_platform_0.
13:26:51 INFO  : Connected to target on host '127.0.0.1' and port '3121'.
13:26:51 INFO  : 'targets -set -filter {jtag_cable_name =~ "Digilent JTAG-HS3 210299A566DE" && level==0} -index 1' command is executed.
13:26:54 INFO  : FPGA configured successfully with bitstream "W:/Common/70R/Students/7D-BU72_149/Thesis/Thomas/ZYNQ/cable_robotics/cable_robotics.sdk/top_level_hw_platform_0/top_level.bit"
13:27:09 INFO  : 'targets -set -filter {jtag_cable_name =~ "Digilent JTAG-HS3 210299A566DE" && level==0} -index 1' command is executed.
13:27:09 INFO  : 'fpga -state' command is executed.
13:27:09 INFO  : Connected to target on host '127.0.0.1' and port '3121'.
13:27:09 INFO  : Jtag cable 'Digilent JTAG-HS3 210299A566DE' is selected.
13:27:09 INFO  : 'jtag frequency' command is executed.
13:27:09 INFO  : Sourcing of 'W:/Common/70R/Students/7D-BU72_149/Thesis/Thomas/ZYNQ/cable_robotics/cable_robotics.sdk/top_level_hw_platform_0/ps7_init.tcl' is done.
13:27:09 INFO  : Context for 'APU' is selected.
13:27:09 INFO  : Hardware design information is loaded from 'W:/Common/70R/Students/7D-BU72_149/Thesis/Thomas/ZYNQ/cable_robotics/cable_robotics.sdk/top_level_hw_platform_0/system.hdf'.
13:27:09 INFO  : 'configparams force-mem-access 1' command is executed.
13:27:09 INFO  : Context for 'APU' is selected.
13:27:09 INFO  : 'stop' command is executed.
13:27:10 INFO  : 'ps7_init' command is executed.
13:27:10 INFO  : 'ps7_post_config' command is executed.
13:27:10 INFO  : Context for processor 'ps7_cortexa9_0' is selected.
13:27:10 INFO  : Processor reset is completed for 'ps7_cortexa9_0'.
13:27:10 INFO  : Context for processor 'ps7_cortexa9_0' is selected.
13:27:10 INFO  : The application 'W:/Common/70R/Students/7D-BU72_149/Thesis/Thomas/ZYNQ/cable_robotics/cable_robotics.sdk/cable_robotics_sw/Debug/cable_robotics_sw.elf' is downloaded to processor 'ps7_cortexa9_0'.
13:27:10 INFO  : 'configparams force-mem-access 0' command is executed.
13:27:10 INFO  : ----------------XSDB Script----------------
connect -url tcp:127.0.0.1:3121
source W:/Common/70R/Students/7D-BU72_149/Thesis/Thomas/ZYNQ/cable_robotics/cable_robotics.sdk/top_level_hw_platform_0/ps7_init.tcl
targets -set -nocase -filter {name =~"APU*" && jtag_cable_name =~ "Digilent JTAG-HS3 210299A566DE"} -index 0
loadhw -hw W:/Common/70R/Students/7D-BU72_149/Thesis/Thomas/ZYNQ/cable_robotics/cable_robotics.sdk/top_level_hw_platform_0/system.hdf -mem-ranges [list {0x40000000 0xbfffffff}]
configparams force-mem-access 1
targets -set -nocase -filter {name =~"APU*" && jtag_cable_name =~ "Digilent JTAG-HS3 210299A566DE"} -index 0
stop
ps7_init
ps7_post_config
targets -set -nocase -filter {name =~ "ARM*#0" && jtag_cable_name =~ "Digilent JTAG-HS3 210299A566DE"} -index 0
rst -processor
targets -set -nocase -filter {name =~ "ARM*#0" && jtag_cable_name =~ "Digilent JTAG-HS3 210299A566DE"} -index 0
dow W:/Common/70R/Students/7D-BU72_149/Thesis/Thomas/ZYNQ/cable_robotics/cable_robotics.sdk/cable_robotics_sw/Debug/cable_robotics_sw.elf
configparams force-mem-access 0
----------------End of Script----------------

13:27:10 INFO  : Memory regions updated for context APU
13:27:10 INFO  : Context for processor 'ps7_cortexa9_0' is selected.
13:27:10 INFO  : 'con' command is executed.
13:27:10 INFO  : ----------------XSDB Script (After Launch)----------------
targets -set -nocase -filter {name =~ "ARM*#0" && jtag_cable_name =~ "Digilent JTAG-HS3 210299A566DE"} -index 0
con
----------------End of Script----------------

13:27:10 INFO  : Launch script is exported to file 'W:\Common\70R\Students\7D-BU72_149\Thesis\Thomas\ZYNQ\cable_robotics\cable_robotics.sdk\.sdk\launch_scripts\xilinx_c-c++_application_(system_debugger)\system_debugger_using_debug_cable_robotics_sw.elf_on_local.tcl'
13:27:39 INFO  : Inferring section assignments and sizes from elf file: W:\Common\70R\Students\7D-BU72_149\Thesis\Thomas\ZYNQ\cable_robotics\cable_robotics.sdk\cable_robotics_sw\Debug\cable_robotics_sw.elf
13:30:15 INFO  : Connected to target on host '127.0.0.1' and port '3121'.
13:30:15 INFO  : 'targets -set -filter {jtag_cable_name =~ "Digilent JTAG-HS3 210299A566DE" && level==0} -index 1' command is executed.
13:30:17 INFO  : FPGA configured successfully with bitstream "W:/Common/70R/Students/7D-BU72_149/Thesis/Thomas/ZYNQ/cable_robotics/cable_robotics.sdk/top_level_hw_platform_0/top_level.bit"
13:30:25 INFO  : Disconnected from the channel tcfchan#1.
13:30:27 INFO  : 'targets -set -filter {jtag_cable_name =~ "Digilent JTAG-HS3 210299A566DE" && level==0} -index 1' command is executed.
13:30:27 INFO  : 'fpga -state' command is executed.
13:30:27 INFO  : Connected to target on host '127.0.0.1' and port '3121'.
13:30:27 INFO  : Jtag cable 'Digilent JTAG-HS3 210299A566DE' is selected.
13:30:27 INFO  : 'jtag frequency' command is executed.
13:30:27 INFO  : Sourcing of 'W:/Common/70R/Students/7D-BU72_149/Thesis/Thomas/ZYNQ/cable_robotics/cable_robotics.sdk/top_level_hw_platform_0/ps7_init.tcl' is done.
13:30:27 INFO  : Context for 'APU' is selected.
13:30:32 INFO  : Hardware design information is loaded from 'W:/Common/70R/Students/7D-BU72_149/Thesis/Thomas/ZYNQ/cable_robotics/cable_robotics.sdk/top_level_hw_platform_0/system.hdf'.
13:30:32 INFO  : 'configparams force-mem-access 1' command is executed.
13:30:32 INFO  : Context for 'APU' is selected.
13:30:32 INFO  : 'stop' command is executed.
13:30:32 INFO  : 'ps7_init' command is executed.
13:30:33 INFO  : 'ps7_post_config' command is executed.
13:30:33 INFO  : Context for processor 'ps7_cortexa9_0' is selected.
13:30:33 INFO  : Processor reset is completed for 'ps7_cortexa9_0'.
13:30:33 INFO  : Context for processor 'ps7_cortexa9_0' is selected.
13:30:33 INFO  : The application 'W:/Common/70R/Students/7D-BU72_149/Thesis/Thomas/ZYNQ/cable_robotics/cable_robotics.sdk/cable_robotics_sw/Debug/cable_robotics_sw.elf' is downloaded to processor 'ps7_cortexa9_0'.
13:30:33 INFO  : 'configparams force-mem-access 0' command is executed.
13:30:33 INFO  : ----------------XSDB Script----------------
connect -url tcp:127.0.0.1:3121
source W:/Common/70R/Students/7D-BU72_149/Thesis/Thomas/ZYNQ/cable_robotics/cable_robotics.sdk/top_level_hw_platform_0/ps7_init.tcl
targets -set -nocase -filter {name =~"APU*" && jtag_cable_name =~ "Digilent JTAG-HS3 210299A566DE"} -index 0
loadhw -hw W:/Common/70R/Students/7D-BU72_149/Thesis/Thomas/ZYNQ/cable_robotics/cable_robotics.sdk/top_level_hw_platform_0/system.hdf -mem-ranges [list {0x40000000 0xbfffffff}]
configparams force-mem-access 1
targets -set -nocase -filter {name =~"APU*" && jtag_cable_name =~ "Digilent JTAG-HS3 210299A566DE"} -index 0
stop
ps7_init
ps7_post_config
targets -set -nocase -filter {name =~ "ARM*#0" && jtag_cable_name =~ "Digilent JTAG-HS3 210299A566DE"} -index 0
rst -processor
targets -set -nocase -filter {name =~ "ARM*#0" && jtag_cable_name =~ "Digilent JTAG-HS3 210299A566DE"} -index 0
dow W:/Common/70R/Students/7D-BU72_149/Thesis/Thomas/ZYNQ/cable_robotics/cable_robotics.sdk/cable_robotics_sw/Debug/cable_robotics_sw.elf
configparams force-mem-access 0
----------------End of Script----------------

13:30:33 INFO  : Memory regions updated for context APU
13:30:33 INFO  : Context for processor 'ps7_cortexa9_0' is selected.
13:30:33 INFO  : 'con' command is executed.
13:30:33 INFO  : ----------------XSDB Script (After Launch)----------------
targets -set -nocase -filter {name =~ "ARM*#0" && jtag_cable_name =~ "Digilent JTAG-HS3 210299A566DE"} -index 0
con
----------------End of Script----------------

13:30:33 INFO  : Launch script is exported to file 'W:\Common\70R\Students\7D-BU72_149\Thesis\Thomas\ZYNQ\cable_robotics\cable_robotics.sdk\.sdk\launch_scripts\xilinx_c-c++_application_(system_debugger)\system_debugger_using_debug_cable_robotics_sw.elf_on_local.tcl'
13:50:25 INFO  : Disconnected from the channel tcfchan#2.
14:17:12 INFO  : Registering command handlers for SDK TCF services
14:17:13 INFO  : Launching XSCT server: xsct.bat -interactive W:\Common\70R\Students\7D-BU72_149\Thesis\Thomas\ZYNQ\cable_robotics_test\cable_robotics.sdk\temp_xsdb_launch_script.tcl
14:17:17 INFO  : XSCT server has started successfully.
14:17:18 INFO  : Successfully done setting XSCT server connection channel  
14:17:18 INFO  : Processing command line option -hwspec W:/Common/70R/Students/7D-BU72_149/Thesis/Thomas/ZYNQ/cable_robotics_test/cable_robotics.sdk/top_level.hdf.
14:17:18 INFO  : Successfully done setting SDK workspace  
14:26:24 INFO  : Launching XSCT server: xsct.bat -interactive W:\Common\70R\Students\7D-BU72_149\Thesis\Thomas\ZYNQ\cable_robotics_test\cable_robotics.sdk\temp_xsdb_launch_script.tcl
14:26:27 INFO  : XSCT server has started successfully.
14:26:27 INFO  : Successfully done setting XSCT server connection channel  
14:26:28 INFO  : Successfully done setting SDK workspace  
14:26:36 INFO  : Registering command handlers for SDK TCF services
14:26:36 INFO  : Processing command line option -hwspec W:/Common/70R/Students/7D-BU72_149/Thesis/Thomas/ZYNQ/cable_robotics_test/cable_robotics.sdk/top_level.hdf.
14:43:25 INFO  : Registering command handlers for SDK TCF services
14:43:26 INFO  : Launching XSCT server: xsct.bat -interactive W:\Common\70R\Students\7D-BU72_149\Thesis\Thomas\ZYNQ\cable_robotics_test\cable_robotics.sdk\temp_xsdb_launch_script.tcl
14:43:30 INFO  : XSCT server has started successfully.
14:43:31 INFO  : Successfully done setting XSCT server connection channel  
14:43:31 INFO  : Processing command line option -hwspec W:/Common/70R/Students/7D-BU72_149/Thesis/Thomas/ZYNQ/cable_robotics_test/cable_robotics.sdk/top_level.hdf.
14:43:31 INFO  : Successfully done setting SDK workspace  
14:53:35 INFO  : Invoking Bootgen: bootgen -image cable_robotics_sw.bif -arch zynq -o W:\Common\70R\Students\7D-BU72_149\Thesis\Thomas\ZYNQ\cable_robotics_test\cable_robotics.sdk\cable_robotics_sw\bootimage\BOOT.bin
14:53:35 INFO  : Creating new bif file W:\Common\70R\Students\7D-BU72_149\Thesis\Thomas\ZYNQ\cable_robotics_test\cable_robotics.sdk\cable_robotics_sw\bootimage\cable_robotics_sw.bif
14:53:39 INFO  : Bootgen command execution is done.
